{
    "apps" : [{
      "name"        : "bfar-docker",
      "script"      : "index.js",
      "args"        : [],
      "log_date_format" : "YYYY-MM-DD HH:mm Z",
      "watch"       : true,
      "node_args"   : "",
      "merge_logs"  : false,
      "cwd"         : "./",
      "exec_mode"  : "cluster",
      "instances": "1",
      "env": {
          "NODE_ENV": "local"
      }
    }]
  }
  